address_details^state^201^50^1^
address_details^dist^0^40^2^
address_details^city^0^35^3^
address_details^post^0^45^4^
address_details^pincode^2^4^5^
address_details^religions^201^255^6^
business_details^serial_no^2^4^1^
business_details^exp_id^2^4^2^
business_details^date^7^4^3^
business_details^amount^5^2306^4^
business_details^company_name^201^255^5^
business_details^business_trans^201^255^6^
details^registration_number^201^255^1^
details^name^201^100^2^
details^mobile_no^201^20^3^
details^email_id^201^40^4^
details^gender^0^15^5^
details^father_name^201^50^6^
details^adhaar_number^201^30^7^
details^date_of_birth^7^4^8^
details^category^0^20^9^
details^religion^201^255^10^
emp_mast^emp_no^2^4^1^
emp_mast^emp_name^201^255^2^
emp_mast^position^201^255^3^
emp_mast^manager^201^255^4^
emp_mast^department^201^255^5^
exp_details^serial_no^2^4^1^
exp_details^exp_id^2^4^2^
exp_details^date^7^4^3^
exp_details^location^201^255^4^
exp_details^expense_type^201^255^5^
exp_details^mileage^5^2306^6^
exp_details^amount^201^9^7^
exp_details^charge_to_fourjs^5^2306^8^
exp_header^exp_id^2^4^1^
exp_header^emp_no^2^4^2^
exp_header^notes^201^255^3^
exp_header^charge_type^201^255^4^
